{
    "Records": [
        {
            "keywords": "banana",
            "image_directory": "z_testing",
            "limit": 10000,
            "download": true,
            "output_directory": "/media/globalcaos/databases/image_dataset/vehicles/forklift/internet_images/",
            "chromedriver": "/home/globalcaos/tools/chromedriver_linux64/chromedriver",
            "print_urls": false,
            "print_size": false,
            "metadata": true,
            "extract_metadata": true,
            "socket_timeout": false,
            "language": false,
            "prefix": false,
            "related_images": true,
            "safe_search": false,
            "ignore_urls": false,
            "silent_mode": false
        }
    ]
}